[
    {
        "tier": 1,
        "name": "Lil' Goblin",
        "class": "Goblin",
        "comment": "Harmless, mostly",
        "health": 8,
        "defense": 1,
        "abilities": [
            {
                "name": "Slash",
                "action": {
                    "Attack": "1d6"
                }
            },
            {
                "name": "Slash",
                "action": {
                    "Attack": "1d6"
                }
            },
            {
                "name": "Flurry",
                "action": {
                    "Attack": "2d4"
                }
            },
            {
                "name": "Flurry",
                "action": {
                    "Attack": "2d4"
                }
            },
            {
                "name": "Block",
                "action": {
                    "Defend": "1d4"
                }
            },
            {
                "name": "Cackle",
                "action": null
            }
        ]
    },
    {
        "tier": 2,
        "name": "Lil' Goblin 2",
        "class": "Goblin",
        "comment": "Mostly harmless",
        "health": 8,
        "defense": 1,
        "abilities": [
            {
                "name": "Slash",
                "action": {
                    "Attack": "2d6"
                }
            },
            {
                "name": "Slash",
                "action": {
                    "Attack": "2d6"
                }
            },
            {
                "name": "Flurry",
                "action": {
                    "Attack": "4d4"
                }
            },
            {
                "name": "Flurry",
                "action": {
                    "Attack": "4d4"
                }
            },
            {
                "name": "Block",
                "action": {
                    "Defend": "2d4"
                }
            },
            {
                "name": "Cackle",
                "action": null
            }
        ]
    }
]